[
    {
        "featureType": "landscape",
        "stylers": [
            {
                "color": "#efefef"
            }
        ]
    },
    {
        "featureType": "poi.park",
        "stylers": [
            {
                "color": "#efefef"
            }
        ]
    },
    {
        "featureType": "water",
        "stylers": [
            {
                "color": "#abdeff"
            }
        ]
    }
]
